{
    "antifeatures": {
        "Ads": "Bu uygulama reklam içeriyor",
        "DisabledAlgorithm": "Bu uygulamanın zayıf güvenlikli imzası var",
        "KnownVuln": "Bu uygulama bilinen bir güvenlik açığı içeriyor",
        "NSFW": "Bu uygulama, herkese duyurulmaması veya her yerde görünmemesi gereken içerik içeriyor",
        "NoSourceSince": "Artık kullanılabilir bir kaynak kodu yok, güncelleme mümkün değil",
        "NonFreeAdd": "Bu uygulama özgür olmayan eklentilere teşvik eder",
        "NonFreeAssets": "Bu uygulama özgür olmayan kaynaklar içerir",
        "NonFreeDep": "Bu uygulama özgür olmayan başka uygulamalara bağlıdır",
        "NonFreeNet": "Bu uygulama özgür olmayan bir ağ hizmetine teşvik eder veya tamamen buna bağlıdır",
        "Tracking": "Bu uygulama etkinliğinizi izler ve raporlar",
        "UpstreamNonFree": "Kaynak kod tamamen özgür değildir"
    },
    "app_categories": {
        "Connectivity": "Bağlanabilirlik",
        "Development": "Geliştirme",
        "Games": "Oyunlar",
        "Graphics": "Çizimler",
        "Internet": "İnternet",
        "Money": "Para",
        "Multimedia": "Çoklu Ortam",
        "Navigation": "Navigasyon",
        "Phone & SMS": "Telefon ve SMS",
        "Reading": "Okuma",
        "Science & Education": "Bilim ve Eğitim",
        "Security": "Güvenlik",
        "Sports & Health": "Spor ve Sağlık",
        "System": "Sistem",
        "Theming": "Temalandırma",
        "Time": "Zaman",
        "Writing": "Yazma",
        "show_all_packages": "%d paketin tümünü göster"
    },
    "index": {
        "download_fdroid": "F-Droid'i İndir",
        "gpg_signature": "PGP İmzası",
        "introduction": "F-Droid, Android platformu için FOSS (Özgür ve Açık Kaynaklı Yazılım) uygulamalarının kurulabilir bir kataloğudur. İstemci, cihazınızdaki güncellemelere göz atmayı, yüklemeyi ve bunları takip etmeyi kolaylaştırır.",
        "pgp_verification_instructions": "İndirmeyi doğrulamak için talimatlar",
        "screenshot": "F-Droid Android uygulaması ekran görüntüsü",
        "title": "F-Droid nedir?"
    },
    "mirrors": {
        "cn": "Çin",
        "de": "Almanya",
        "dk": "Danimarka",
        "indiana": "Indiana, ABD",
        "se": "İsveç",
        "sg": "Singapur",
        "tw": "Tayvan",
        "ua": "Ukrayna"
    },
    "navigation": {
        "about": "Hakkında",
        "apps": "Uygulamalar",
        "contribute": "Katkıda Bulunun",
        "documentation": "Belgeler",
        "edit_on_gitlab": "GitLab'da düzenle",
        "forum": "Forum",
        "issues": "Sorunlar",
        "news": "Haberler",
        "statuspage": "Durum",
        "translate_on_weblate": "Weblate'de çevir"
    },
    "news": {
        "date_format": "%d/%m/%Y",
        "newer_posts": "← Daha Yeni Gönderiler",
        "older_posts": "Daha Eski Gönderiler →",
        "posted_on": "Gönderi tarihi {{ post_date }}"
    },
    "package": {
        "added_on": "{{ package_added_date }} tarihinde eklendi",
        "anti_features": "Karşıt Özellikler",
        "anti_features_warning": "Bu uygulama hoşunuza gitmeyecek özelliklere sahip olabilir.",
        "author": "Yazar",
        "build_log": "Derleme Günlüğü",
        "build_metadata": "Derleme Üst Verisi",
        "changelog": "Değişiklikler",
        "donate": "Bağış Yap",
        "download": "{{ file_extension }} İndir",
        "flattr": "Flattr",
        "gpg_signature": "PGP İmzası",
        "issue_tracker": "Sorun İzleyici",
        "liberapay": "Liberapay",
        "license": "Lisans",
        "minimum_android_version": "Bu sürüm Android {{ android_version }} veya daha yenisini gerektirir.",
        "new_in_version": "Sürümdeki yenilikler {{ latest_version }}",
        "opencollective": "Open Collective",
        "package_icon_alt": "paket simgesi",
        "package_screenshot_alt": "uygulama ekran görüntüsü",
        "packages": "Paketler",
        "permissions": "İzinler",
        "signed_by_developer": "Özgün geliştirici tarafından derlendi ve imzalandı, ve <a href=\"{{ source_code_url }}\">bu kaynak tar arşiviyle</a> eşleştiği garanti edilir.",
        "signed_by_fdroid": "F-Droid tarafından derlendi ve imzalandı, ve <a href=\"{{ source_code_url }}\">bu kaynak tar dosyası</a> ile teyit edilebilir.",
        "source_code": "Kaynak Kodu",
        "suggest_downloading_via_fdroid": "Aşağıdaki APK indirmeleri size seçenek sunsa da, bu şekilde kurarsanız güncelleme bildirimlerini almayacağınızı ve bunun daha güvensiz bir indirme yolu olduğunu unutmayın. F-Droid istemcisini kurmanızı ve onu kullanmanızı öneriyoruz.",
        "suggested": "önerilen",
        "translation": "Çeviri",
        "version_info": "<b>Sürüm {{ package_version }}</b> ({{ package_version_code }})",
        "versions": "Sürümler",
        "website": "Web Sitesi"
    },
    "permissions": {
        "permdesc_acceptHandovers": "Uygulamanın, başka bir uygulamada başlatılan çağrıya devam etmesine izin verir.",
        "permdesc_accessBackgroundLocation": "Bu uygulama, uygulama kullanılmıyorken bile konum bilgisine her zaman erişebilir.",
        "permdesc_accessCoarseLocation": "Bu uygulama, kullanılırken konum hizmetlerinden yaklaşık konum bilginizi alabilir. Uygulamanın konum bilginizi alabilmesi için aygıtınızda konum hizmetlerinin açık olması gerekir.",
        "permdesc_accessDrmCertificates": "Bir uygulamanın DRM sertifikaları için temel hazırlık yapmasına ve bunları kullanmasına izin verir. Normal uygulamalar için hiçbir zaman gerekmez.",
        "permdesc_accessFineLocation": "Bu uygulama, kullanılırken konum hizmetlerinden kesin konum bilginizi alabilir. Uygulamanın konum bilginizi alabilmesi için aygıtınızda konum hizmetlerinin açık olması gerekir. Bu durum pil kullanımını artırabilir.",
        "permdesc_accessImsCallService": "Uygulamanın, sizin müdahaleniz olmadan telefon etmek için IMS hizmetini kullanmasına izin verir.",
        "permdesc_accessLocationExtraCommands": "Uygulamanın, ek konum sağlayıcı komutlarına erişmesine izin verir. Bu izin, uygulamanın GPS veya diğer konum kaynaklarının çalışmasını kesmesine olanak sağlayabilir.",
        "permdesc_accessNetworkConditions": "Bir uygulamaya, ağ koşullarını izleme izni verir. Normal uygulamalar için hiçbir zaman gerekmez.",
        "permdesc_accessNetworkState": "Uygulamaya, hangi ağların bulunduğu ve hangilerine bağlı olunduğu gibi ağ bağlantılarıyla ilgili bilgileri görüntüleme izni verir.",
        "permdesc_accessNotifications": "Uygulamanın bildirimler almasına, bildirimleri incelemesine ve silmesine izin verir. Buna diğer uygulamalar tarafından gönderilen bildirimler de dahildir.",
        "permdesc_accessWifiState": "Uygulamaya, kablosuz bağlantının etkin olup olmadığı ve bağlanan kablosuz cihazların adları gibi kablosuz ağ kullanımıyla ilgili bilgileri görüntüleme izni verir.",
        "permdesc_accessWimaxState": "Uygulamaya, WiMAX'in etkin olup olmadığını belirleme ve bağlı tüm WiMAX ağlarıyla ilgili bilgilere erişme izni verir.",
        "permdesc_access_notification_policy": "Uygulamaya, Rahatsız Etmeyin yapılandırmasını okuma ve yazma izni verir.",
        "permdesc_activityRecognition": "Bu uygulama fiziksel etkinliğinizi algılayabilir.",
        "permdesc_addVoicemail": "Uygulamaya, sesli mesaj gelen kutunuza mesaj ekleme izni verir.",
        "permdesc_answerPhoneCalls": "Uygulamanın gelen bir telefon çağrısına yanıt vermesine olanak tanır.",
        "permdesc_audioWrite": "Uygulamanın müzik koleksiyonunuzu değiştirmesine izin verir.",
        "permdesc_backgroundCamera": "Bu uygulama, herhangi bir zaman kamerayı kullanarak fotoğraf ve video çekebilir.",
        "permdesc_bindCarrierMessagingService": "İzin sahibinin, operatör mesajlaşma hizmetinin üst düzey arayüzüne bağlanmasına olanak verir. Normal uygulamalarda hiçbir zaman gerekmez.",
        "permdesc_bindCarrierServices": "İzin sahibinin, operatör hizmetlerine bağlanmasına olanak tanır. Normal uygulamalarda hiçbir zaman gerekmez.",
        "permdesc_bindCellBroadcastService": "Hücre yayını mesajları geldiğinde bunları yönlendirmek için uygulamanın hücre yayını modülüne bağlanmasına izin verir. Hücre yayını uyarıları bazı konumlarda acil durumlar hakkında sizi uyarmak için kullanılır. Zararlı uygulamalar acil durum hücre yayını alındığında aygıtınızın performansını ve çalışmasını olumsuz etkileyebilir.",
        "permdesc_bindConditionProviderService": "İzin sahibinin, bir durum sağlayıcı hizmete ait üst düzey arayüze bağlanmasına izin verir. Normal uygulamalar için hiçbir zaman gerekli değildir.",
        "permdesc_bindDreamService": "İzin sahibine bir dream hizmetinin üst seviye arayüzüne bağlanma olanağı sunar. Normal uygulamalarda hiçbir zaman ihtiyaç duyulmamalıdır.",
        "permdesc_bindNotificationListenerService": "İzin sahibine bir bildirim dinleyici hizmetinin en üst düzey arayüzüne bağlanma izni verir. Normal uygulamalarda hiçbir zaman gerek duyulmaz.",
        "permdesc_bind_connection_service": "Uygulamanın çağrı yapmak/almak için telefon hizmetleriyle etkileşimde bulunmasına izin verir.",
        "permdesc_bind_incall_service": "Uygulamaya, kullanıcının çağrı ekranını ne zaman ve nasıl göreceğini denetleme izni verir.",
        "permdesc_bluetooth": "Uygulamaya, telefondaki Bluetooth yapılandırmasını görüntüleme, eşlenmiş cihazlarla bağlantı yapma ve bu tür bağlantıları kabul etme izni verir.",
        "permdesc_bluetoothAdmin": "Uygulamaya, yerel Bluetooth telefonunu yapılandırma ve uzak cihazları keşfedip bunlarla eşleşme izni verir.",
        "permdesc_bluetooth_advertise": "Uygulamaya, yakındaki Bluetooth cihazlara reklam yayınlama izni verir",
        "permdesc_bluetooth_connect": "Uygulamaya, eşlenen Bluetooth cihazlara bağlanma izni verir",
        "permdesc_bluetooth_scan": "Uygulamaya, yakındaki Bluetooth cihazları keşfedip eşleme izni verir",
        "permdesc_bodySensors": "Uygulamanın, nabzınız gibi fiziksel durumunuzu izleyen sensörlerin gönderdiği verilere erişmesine izin verir.",
        "permdesc_bodySensors_background": "Uygulama arkaplanda çalışırken, kalp atış hızı, vücut ısısı ve kandaki oksijen seviyesinin yüzde oranı gibi vücut sensör bilgilerine erişilmesi izni verir.",
        "permdesc_broadcastSticky": "Uygulamaya, yayın bittikten sonra da kalan sabit yayınlar gönderme izni verir. Aşırı kullanılması çok fazla bellek harcanmasına neden olarak telefonunu yavaşlatabilir veya dengesiz hale getirebilir.",
        "permdesc_callCompanionApp": "Uygulamanın cihazda devam eden aramaları görmesini ve kontrol etmesini sağlar. Bu bilgiler arasında aramaların yapıldığı numaralar ve aramaların durumu gibi bilgiler yer alır.",
        "permdesc_callPhone": "Uygulamaya sizin müdahaleniz olmadan telefon numaralarına çağrı yapma izni verir. Bu durum beklenmeyen ödemelere veya çağrılara neden olabilir. Ancak bu iznin, uygulamanın acil numaralara çağrı yapmasına olanak sağlamadığını unutmayın. Kötü amaçlı uygulamalar onayınız olmadan çağrılar yaparak sizi zarara sokabilir.",
        "permdesc_camera": "Bu uygulama, kullanıldığı sırada kamerayı kullanarak fotoğraf ve video çekebilir.",
        "permdesc_cameraOpenCloseListener": "Bu uygulama, herhangi bir kamera aygıtı açıldığında (kamerayı açan uygulama tarafından) veya kapatıldığında geri çağırmalar alabilir.",
        "permdesc_changeNetworkState": "Uygulamaya, ağ bağlantısının durumunu değiştirme izni verir.",
        "permdesc_changeTetherState": "Uygulamaya, tethering kullanan ağ bağlantısının durumunu değiştirme izni verir.",
        "permdesc_changeWifiMulticastState": "Uygulamaya, çoklu yayın adreslerini kullanarak yalnızca telefona değil Kablosuz ağ üzerindeki tüm cihazlara gönderilen paketleri alma izni verir. Çoklu olmayan yayın moduna göre daha fazla güç tüketir.",
        "permdesc_changeWifiState": "Uygulamaya, kablosuz erişim noktalarına bağlanıp bunlarla bağlantısını kesme ve Kablosuz ağlar için cihaz yapılandırmasında değişiklikler yapma izni verir.",
        "permdesc_changeWimaxState": "Uygulamaya, telefonu WiMAX ağlarına bağlanma veya bağlantıyı kesme izni verir.",
        "permdesc_companionProfileWatch": "Saatleri yönetmek için bir yardımcı uygulamaya izin verir.",
        "permdesc_connection_manager": "Uygulamanın telekomünikasyon bağlantılarını yönetmesine izin verir.",
        "permdesc_control_incall_experience": "Uygulamaya, çağrı içi kullanım deneyimi sağlama izin verir.",
        "permdesc_createNetworkSockets": "Uygulamaya ağ yuvaları oluşturma ve özel ağ protokolleri kullanma izni verir. Tarayıcı ve diğer uygulamalar İnternet'e veri gönderilmesi için araç sağlarlar, bu nedenle bu izin, İnternet'e veri göndermek için gerekli değildir.",
        "permdesc_deliverCompanionMessages": "Bir tamamlayıcı uygulamanın diğer aygıtlara tamamlayıcı mesajlar göndermesine izin verir.",
        "permdesc_detectScreenCapture": "Uygulama kullanılırken ekran görüntüsü alındığında bu uygulama bilgilendirilir.",
        "permdesc_disableKeyguard": "Uygulamaya, tuş kilidini ve ilişkili tüm şifreli güvenlik önlemlerini devre dışı bırakma izni verir. Örneğin, telefon, çağrı alındığında tuş kilidinin devre dışı bırakır ve sonra, görüşme bittiğinde kilidi yeniden etkinleştirir.",
        "permdesc_enableCarMode": "Uygulamaya, araç modunu etkinleştirme izni verir.",
        "permdesc_exemptFromAudioRecordRestrictions": "Uygulamayı ses kaydetme kısıtlamalarından muaf tut.",
        "permdesc_expandStatusBar": "Uygulamaya, durum çubuğunu genişletip daraltma izni verir.",
        "permdesc_foregroundService": "Uygulamanın ön plan hizmetlerinden faydalanmasına izin verir.",
        "permdesc_foregroundServiceCamera": "Uygulamanın \"camera\" türüyle ön plan hizmetlerini kullanmasına izin verir",
        "permdesc_foregroundServiceConnectedDevice": "Uygulamanın \"connectedDevice\" türüyle ön plan hizmetlerini kullanmasına izin verir",
        "permdesc_foregroundServiceDataSync": "Uygulamanın \"dataSync\" türüyle ön plan hizmetlerini kullanmasına izin verir",
        "permdesc_foregroundServiceFileManagement": "Uygulamanın \"fileManagement\" türündeki ön plan hizmetlerini kullanmasına izin verir.",
        "permdesc_foregroundServiceHealth": "Uygulamanın \"health\" türüyle ön plan hizmetlerini kullanmasına izin verir",
        "permdesc_foregroundServiceLocation": "Uygulamanın \"location\" türüyle ön plan hizmetlerini kullanmasına izin verir",
        "permdesc_foregroundServiceMediaPlayback": "Uygulamanın \"mediaPlayback\" türüyle ön plan hizmetlerini kullanmasına izin verir",
        "permdesc_foregroundServiceMediaProjection": "Uygulamanın \"mediaProjection\" türüyle ön plan hizmetlerini kullanmasına izin verir",
        "permdesc_foregroundServiceMicrophone": "Uygulamanın \"microphone\" türüyle ön plan hizmetlerini kullanmasına izin verir",
        "permdesc_foregroundServicePhoneCall": "Uygulamanın \"phoneCall\" türüyle ön plan hizmetlerini kullanmasına izin verir",
        "permdesc_foregroundServiceRemoteMessaging": "Uygulamanın \"remoteMessaging\" türüyle ön plan hizmetlerini kullanmasına izin verir",
        "permdesc_foregroundServiceSpecialUse": "Uygulamanın \"specialUse\" türüyle ön plan hizmetlerini kullanmasına izin verir",
        "permdesc_foregroundServiceSystemExempted": "Uygulamanın \"systemExempted\" türüyle ön plan hizmetlerini kullanmasına izin verir",
        "permdesc_fullScreenIntent": "Uygulamanın kilitli cihazda tam ekran etkinlik biçiminde bildirim göstermesine izin verilir",
        "permdesc_getAccounts": "Uygulamaya telefon tarafından bilinen hesapların listesini alma izni verir. Bu liste, yüklediğiniz uygulamalar tarafından oluşturulan tüm hesapları içerebilir.",
        "permdesc_getPackageSize": "Uygulamaya kodunu, verilerini ve önbellek boyutlarını alma izni verir",
        "permdesc_getTasks": "Uygulamaya o anda ve son çalışan görevler hakkında bilgi alma izni verir. Bu izin, uygulamanın cihaz tarafından kullanılan uygulamalar hakkında bilgi elde etmesine olanak sağlayabilir.",
        "permdesc_handoverStatus": "Bu uygulamanın mevcut Android Beam aktarımlarıyla ilgili bilgi almasına izin verir",
        "permdesc_hideOverlayWindows": "Bu uygulama, üzerinde gösterilen uygulamalardan kaynaklı yer paylaşımlarının sistem tarafından gizlenmesini isteyebilir.",
        "permdesc_highSamplingRateSensors": "Uygulamanın, sensör verilerini 200 Hz'den daha yüksek bir hızda örneklemesine olanak tanır",
        "permdesc_imagesWrite": "Uygulamanın fotoğraf koleksiyonunuzu değiştirmesine izin verir.",
        "permdesc_install_shortcut": "Uygulamaya, kullanıcı müdahalesi olmadan kısayolları Ana Ekrana ekleme izni verir.",
        "permdesc_invokeCarrierSetup": "İzin sahibine, operatör tarafından sağlanan yapılandırma uygulamasını çalıştırma izni verir. Normal uygulamalarda hiçbir zaman gerek duyulmaz.",
        "permdesc_killBackgroundProcesses": "Uygulamaya diğer uygulamalara ait arka plan işlemleri sonlandırma izni verir. Bu izin, diğer uygulamaların çalışmayı durdurmasına neden olabilir.",
        "permdesc_manageFace": "Uygulamanın, kullanılacak yüz şablonlarını ekleme ve silme yöntemlerini başlatmasına izin verir.",
        "permdesc_manageFingerprint": "Uygulamanın, kullanılacak parmak izi şablonlarını ekleme ve silme yöntemlerini başlatmasına izin verir.",
        "permdesc_manageNetworkPolicy": "Uygulamaya, ağ politikalarını yönetme ve uygulamaya özgü kuralları tanımlama izni verir.",
        "permdesc_manageOngoingCalls": "Uygulamanın, cihazınızda devam eden aramalarla ilgili bilgileri görüp kontrol etmesine izin verir.",
        "permdesc_manageOwnCalls": "Uygulamanın, çağrı deneyimini iyileştirmek için çağrılarını sistem üzerinden yönlendirmesine olanak tanır.",
        "permdesc_manageProfileAndDeviceOwners": "Uygulamaların, profil sahiplerini ve cihaz sahibini ayarlamasına izin verir.",
        "permdesc_mediaLocation": "Uygulamanın medya koleksiyonunuzdaki konumları okumasına izin verir.",
        "permdesc_modifyAudioSettings": "Uygulamaya ses düzeyi ve ses çıkışı için kullanılan hoparlör gibi genel ses ayarlarını değiştirme izni verir.",
        "permdesc_modifyNetworkAccounting": "Uygulamaya, ağın uygulamalara göre nasıl kullanılacağını değiştirme izni verir. Normal uygulamalar tarafından kullanılmak için değildir.",
        "permdesc_nearby_wifi_devices": "Uygulamanın reklam sunmasına, bağlanmasına ve yakındaki kablosuz cihazların göreli konumunu belirlemesine izin verir",
        "permdesc_nfc": "Uygulamaya, Near Field Communication (NFC) etiketleri, kartlar ve okuyucular ile iletişim kurma izni verir.",
        "permdesc_observeCompanionDevicePresence": "Cihazların arasındaki mesafe az veya çok olduğunda tamamlayıcı cihaz varlığının tamamlayıcı uygulama tarafından gözlemlenmesine izin verir.",
        "permdesc_persistentActivity": "Uygulamaya kendisinin bir bölümünü bellekte kalıcı yapma izni verir. Bu izin, diğer uygulamaların kullanabileceği belleği sınırlandırarak telefonun yavaş çalışmasına neden olabilir.",
        "permdesc_postNotification": "Uygulamanın bildirimleri göstermesine izin verir",
        "permdesc_preferredPaymentInfo": "Uygulamanın, kayıtlı yardımlar ve rota hedefi gibi tercih edilen NFC ödeme hizmeti bilgilerini almasına izin verir.",
        "permdesc_processOutgoingCalls": "Uygulamaya, giden bir çağrının numarası çevrilirken çağrıyı farklı bir numaraya yönlendirme ya da tamamen kapatma seçeneğiyle birlikte numarayı görme izni verir.",
        "permdesc_queryAllPackages": "Uygulamaya tüm yüklü paketleri görme izni verir.",
        "permdesc_readBasicPhoneState": "Uygulamanın, cihazdaki temel telefon özelliklerine erişmesine izin verir.",
        "permdesc_readCalendar": "Bu uygulama, telefonunuzda kayıtlı tüm takvim etkinliklerini okuyabilir ve takvim verilerinizi paylaşabilir ya da kaydedebilir.",
        "permdesc_readCallLog": "Bu uygulama, çağrı geçmişinizi okuyabilir.",
        "permdesc_readCellBroadcasts": "Uygulamaya, cihazınız tarafından alınan hücre yayını mesajlarını okuma izni verir. Hücre yayını uyarıları bazı yerlerde acil durumlar konusunda sizi uyarmak için gönderilir. Kötü amaçlı uygulamalar acil hücre yayını alındığında cihazınızın performansına ya da çalışmasına engel olabilir.",
        "permdesc_readContacts": "Uygulamaya telefonunuzda depolanan kişilerinizle ilgili verileri okuma izni verir. Uygulamalar ayrıca telefonunuzda kişi oluşturan hesaplara da erişebilir. Bu, yüklediğiniz uygulamalar tarafından oluşturulan hesapları içerebilir. Bu izin, uygulamanın kişi verilerinizi kaydetmesine olanak sağlar ve kötü amaçlı uygulamalar kişi verilerini sizden habersiz paylaşabilir.",
        "permdesc_readHistoryBookmarks": "Uygulamaya Tarayıcının ziyaret ettiği tüm URL'lerin geçmişini ve tüm Tarayıcı yer işaretlerini okuma izni verir. Not: Bu izin, üçüncü taraf tarayıcılar veya Web'e göz atma işlevine sahip diğer uygulamalar tarafından kullanılmayabilir.",
        "permdesc_readInstallSessions": "Bir uygulamanın yükleme oturumlarını okumasına izin verir. Bu, etkin paket yüklemeleriyle ilgili ayrıntıların görülmesine olanak tanır.",
        "permdesc_readMediaAudio": "Uygulamaya, paylaşılan depolama alanınızdaki ses dosyalarını okuma izni verir.",
        "permdesc_readMediaImages": "Uygulamaya, paylaşılan depolama alanınızdaki resim dosyalarını okuma izni verir.",
        "permdesc_readMediaVideo": "Uygulamaya, paylaşılan depolama alanınızdaki video dosyalarını okuma izni verir.",
        "permdesc_readNetworkUsageHistory": "Uygulamaya, özel ağlar ve uygulamalar için ağ kullanım geçmişini okuma izni verir.",
        "permdesc_readPhoneNumbers": "Uygulamaya, cihazınızın telefon numaralarına erişme izni verir.",
        "permdesc_readPhoneState": "Uygulamaya cihazdaki telefon özelliklerine erişme izni verir. Bu izin, uygulamanın telefon numarasını ve cihaz kimliğini, etkin bir çağrı olup olmadığını ve çağrıda bağlanılan karşı tarafın numarasını öğrenmesine olanak sağlar.",
        "permdesc_readSms": "Bu uygulama, telefonunuzda kayıtlı tüm SMS mesajlarını (kısa mesajları) okuyabilir.",
        "permdesc_readSyncSettings": "Uygulamaya bir hesaba ait eşzamanlama ayarlarını okuma izni verir. Örneğin, bu izne sahip bir uygulama Kişiler uygulamasının bir hesapla eşzamanlanmış olup olmadığını belirleyebilir.",
        "permdesc_readSyncStats": "Uygulamaya bir hesaba ait eşzamanlama istatistiklerini okuma izni verir. Buna eşzamanlama etkinlikleri geçmişi ve eşzamanlanan veri miktarı bilgileri de dahildir.",
        "permdesc_readVisualUserSelect": "Uygulamaya, paylaşılan depolama alanınızdan seçtiğiniz resim ve video dosyalarını okuma izni verir.",
        "permdesc_receiveBootCompleted": "Uygulamaya, kendisini sistem açılışı bittikten hemen sonra başlatma izni verir. Bu izin, telefonun başlatılması için daha uzun bir süre geçmesine ve uygulamanın her zaman çalışarak telefonu yavaşlatmasına neden olur.",
        "permdesc_receiveMms": "Uygulamaya MMS iletilerini alma ve işleme izni verir. Bu izin, uygulamanın cihazınıza gönderilen iletileri takip edip size göstermeden silebileceği anlamına gelir.",
        "permdesc_receiveSms": "Uygulamaya SMS iletilerini alma ve işleme izni verir. Bu izin, uygulamanın cihazınıza gönderilen iletileri takip edip size göstermeden silebileceği anlamına gelir.",
        "permdesc_receiveWapPush": "Uygulamaya WAP mesajlarını alma ve işleme izni verir. Buna, size gönderilen mesajları takip edip size göstermeden silebilme izni de dahildir.",
        "permdesc_recordAudio": "Bu uygulama, kullanıldığı sırada mikrofonu kullanarak ses kaydedebilir.",
        "permdesc_recordBackgroundAudio": "Bu uygulama, herhangi bir zaman mikrofonu kullanarak ses kaydedebilir.",
        "permdesc_register_call_provider": "Uygulamanın yeni telekomünikasyon bağlantıları kaydettirmesine izin verir.",
        "permdesc_register_sim_subscription": "Uygulamanın yeni telekomünikasyon SIM bağlantıları kaydettirmesine izin verir.",
        "permdesc_removeDrmCertificates": "Uygulamaya, DRM sertifikalarını kaldırma izni verir. Normal uygulamalar için hiçbir zaman gerekmez.",
        "permdesc_reorderTasks": "Uygulamaya, görevleri ön plana ve arka plana taşıma izni verir. Uygulama bunu sizden bir giriş olmadan yapabilir.",
        "permdesc_requestDeletePackages": "Uygulamaya, paketleri silme isteğinde bulunma izni verir.",
        "permdesc_requestIgnoreBatteryOptimizations": "Bir uygulamanın, kendisi için pil optimizasyonlarını göz ardı etme izni istemesine olanak sağlar.",
        "permdesc_requestInstallPackages": "Uygulamaya, paketleri yükleme isteğinde bulunma izni verir.",
        "permdesc_requestPasswordComplexity": "Uygulamanın, ekran kilidi karmaşıklık seviyesini (yüksek, orta, düşük veya yok) öğrenmesini sağlar. Ekran kilidi karmaşıklık seviyesi, ekran kilidinin olası uzunluk aralığını ve türünü gösterir. Uygulama, kullanıcılara ekran kilidini belirli bir seviyeye güncellemelerini de önerebilir, ancak kullanıcılar bunu istedikleri gibi yoksayabilir ve geçebilirler. Ekran kilidi şifrelenmemiş metin olarak saklanmadığı için uygulamanın şifreyi tam olarak bilmediğini unutmayın.",
        "permdesc_route_media_output": "Uygulamaya medya çıktısını başka harici cihazlara yönlendirme izni verir.",
        "permdesc_runInBackground": "Bu uygulama arka planda çalıştırılabilir. Bu durum pilinizin daha hızlı boşalmasına neden olabilir.",
        "permdesc_schedule_exact_alarm": "Bu uygulama, ileride istenilen bir zamanda gerçekleşecek işlemler planlayabilir. Dolayısıyla bu uygulama, cihazı etkin olarak kullanmadığınız anlarda da çalışabilir.",
        "permdesc_sdcardRead": "Uygulamaya, paylaşılan depolama alanınızın içeriğini okuma izni verir.",
        "permdesc_sdcardWrite": "Uygulamanın paylaşılan depolama alanınıza içerik yazmasına izin verir.",
        "permdesc_sendSms": "Uygulamaya SMS iletisi gönderme izni verir. Bu durum beklenmeyen ödemelere neden olabilir. Kötü amaçlı uygulamalar onayınız olmadan iletiler göndererek sizi zarara uğratabilir.",
        "permdesc_setAlarm": "Uygulamaya, çalar saat uygulamasının alarmını ayarlama izni verir. Bazı çalar saat uygulamaları bu özelliği uygulayamayabilir.",
        "permdesc_setInputCalibration": "Uygulamaya, dokunmatik ekranın kalibrasyon parametrelerini değiştirme izni verir. Normal uygulamalar için hiçbir zaman gerekmez.",
        "permdesc_setTimeZone": "Uygulamaya, telefonun saat dilimini değiştirme izni verir.",
        "permdesc_setWallpaper": "Uygulamaya, sistem duvar kağıdını ayarlama izni verir.",
        "permdesc_setWallpaperHints": "Uygulamaya, sistem duvar kağıdı için boyut ipuçlarını ayarlama izni verir.",
        "permdesc_sim_communication": "Uygulamanın SIM karta komut göndermesine izin verir. Bu izin çok tehlikelidir.",
        "permdesc_startForegroundServicesFromBackground": "Tamamlayıcı uygulamanın arka plandan ön plan hizmetlerini başlatmasına izin verir.",
        "permdesc_startReviewPermissionDecisions": "İzin sahibinin, izin kararlarını incelemek için ekranı başlatmasına izin verir. Normal uygulamalarda hiçbir zaman gerek duyulmaz.",
        "permdesc_startViewAppFeatures": "İzin sahibinin, bir uygulamanın özellik bilgilerini görüntülemeye başlamasına izin verir.",
        "permdesc_startViewPermissionUsage": "İzin sahibinin bir uygulama için izin kullanımı başlatmasına olanak tanır. Normal uygulamalar için hiçbir zaman kullanılmamalıdır.",
        "permdesc_statusBar": "Uygulamaya, durum çubuğunu devre dışı bırakma ve sistem simgelerini ekleyip kaldırma izni verir.",
        "permdesc_statusBarService": "Uygulamaya, durum çubuğu olma izni verir.",
        "permdesc_subscribedFeedsRead": "Uygulamaya, o anda eşzamanlanan özet akışları ile ilgili ayrıntıları alma izni verir.",
        "permdesc_systemAlertWindow": "Bu uygulama, uygulamaların üzerinde veya ekranın diğer kısımlarında görünebilir. Bu durum, normal uygulama kullanımını etkileyebilir ve diğer uygulamaların görünümünü değiştirebilir.",
        "permdesc_systemCamera": "Bu ayrıcalıklı veya sistem uygulaması herhangi bir zamanda sistem kamerası kullanarak fotoğraf çekebilir ve video kaydedebilir. Uygulamanın da android.permission.CAMERA iznine sahip olmasını gerektirir",
        "permdesc_transmitIr": "Uygulamaya, telefonunun kızıl ötesi vericisini kullanma izni verir.",
        "permdesc_turnScreenOn": "Uygulamaya ekranı açma izni verir.",
        "permdesc_uninstall_shortcut": "Uygulamaya, kullanıcının müdahalesi olmadan kısayolları Ana Ekrandan kaldırma izni verir.",
        "permdesc_updatePackagesWithoutUserAction": "İzin sahibinin, daha önce yüklediği uygulamayı kullanıcı işlemi olmadan güncellemesine izin verir",
        "permdesc_useBiometric": "Uygulamanın kimlik doğrulama için biyometrik donanım kullanmasına izin verir",
        "permdesc_useDataInBackground": "Bu uygulama, arka planda verileri kullanabilir. Bu durum veri kullanımını artırabilir.",
        "permdesc_useFaceAuthentication": "Uygulamanın yüz tanıma kilidi donanımı kullanmasına izin verir",
        "permdesc_useFingerprint": "Uygulamanın kimlik doğrulama için parmak izi donanımını kullanmasına izin verir",
        "permdesc_use_exact_alarm": "Bu uygulama ileride istediğiniz bir zamanda size bildirim vermek için alarm ve hatırlatıcı gibi işlemleri planlayabilir.",
        "permdesc_use_sip": "Uygulamanın SIP çağrıları yapmasına ve almasına izin verir.",
        "permdesc_uwb_ranging": "Uygulamanın, yakındaki Ultra Geniş Bant cihazların birbirine göre konumunu belirlemesine izin verin",
        "permdesc_vibrate": "Uygulamaya, titreşimi denetleme izni verir.",
        "permdesc_vibrator_state": "Uygulamanın titreşim durumuna erişmesine izin verir.",
        "permdesc_videoWrite": "Uygulamanın video koleksiyonunuzu değiştirmesine izin verir.",
        "permdesc_wakeLock": "Uygulamaya, telefonun uykuya geçmesini önleme izni verir.",
        "permdesc_writeCalendar": "Bu uygulama, telefonunuza takvim etkinlikleri ekleyebilir, mevcut etkinlikleri kaldırabilir ve değiştirebilir. Bu uygulama, takvim sahiplerinden gelmiş gibi görünen iletiler gönderebilir veya takvim sahiplerinin bilgisi olmadan etkinlikleri değiştirebilir.",
        "permdesc_writeCallLog": "Uygulamaya telefonunuzun çağrı günlüğünde (gelen ve giden çağrılarla ilgili veriler dahil olmak üzere) değişiklik yapma izni verir. Kötü amaçlı uygulamalar bu izni kullanarak çağrı günlüğünüzü silebilir veya değiştirebilir.",
        "permdesc_writeContacts": "Uygulamaya telefonunuzda kayıtlı kişileriniz ile ilgili verileri değiştirme izni verir. Bu izin, uygulamanın kişi verilerinizi silmesine olanak sağlar.",
        "permdesc_writeGeolocationPermissions": "Uygulamaya, Tarayıcı'nın coğrafi konum izinlerini değiştirme izni verir. Kötü amaçlı uygulamalar keyfi web sitelerine konum bilgisi gönderilmesini sağlamak için bunu kullanabilirler.",
        "permdesc_writeHistoryBookmarks": "Uygulamaya Tarayıcı geçmişini ve telefonunuzda depolanan yer işaretlerini değiştirme izni verir. Bu izin, uygulamanın Tarayıcı geçmişini silmesine ve değiştirmesine olanak sağlar. Not: Bu izin, üçüncü taraf cihazlar veya Web'e göz atma işlevine sahip diğer uygulamalar tarafından kullanılmayabilir.",
        "permdesc_writeSettings": "Uygulamaya, sistem ayarı verilerini değiştirme izni verir. Kötü amaçlı uygulamalar sistem yapılandırmanızı bozabilir.",
        "permdesc_writeSyncSettings": "Uygulamaya bir hesaba ait eşzamanlama ayarlarını değiştirme izni verir. Örneğin, bu izne sahip bir uygulama Kişiler uygulamasının bir hesapla eşzamanlanmasını etkinleştirebilir.",
        "permgroupbackgroundrequest_location": "Uygulamanın arka planda konum izni istemesine izin ver.",
        "permgroupbackgroundrequestdetail_location": "Uygulama şu anda sadece siz onu kullanırken konum bilgisine erişebilir",
        "permgroupdesc_activityRecognition": "fiziksel etkinliğinize erişim",
        "permgroupdesc_calendar": "takviminize erişim",
        "permgroupdesc_calllog": "telefon arama kaydını oku ve yaz",
        "permgroupdesc_camera": "fotoğraf çek ve video kaydet",
        "permgroupdesc_contacts": "kişilerinize erişim",
        "permgroupdesc_location": "bu aygıtın konumuna erişim",
        "permgroupdesc_microphone": "ses kaydet",
        "permgroupdesc_nearby_devices": "yakındaki cihazları keşfetme ve bağlanma",
        "permgroupdesc_notifications": "bildirimleri göster",
        "permgroupdesc_phone": "telefon çağrıları yap ve yönet",
        "permgroupdesc_readMediaAural": "cihazınızdaki müziklere ve seslere erişme",
        "permgroupdesc_readMediaVisual": "cihazınızdaki fotoğraflara ve videolara erişme",
        "permgroupdesc_sensors": "hayati belirtilerinizle ilgili sensör verilerine erişim",
        "permgroupdesc_sms": "SMS mesajları gönder ve görüntüle",
        "permgroupdesc_storage": "aygıtınızdaki fotoğraflara, medyaya ve dosyalara erişim",
        "permgrouplab_activityRecognition": "Fiziksel etkinlik",
        "permgrouplab_calendar": "Takvim",
        "permgrouplab_calllog": "Arama kayıtları",
        "permgrouplab_camera": "Kamera",
        "permgrouplab_contacts": "Kişiler",
        "permgrouplab_location": "Konum",
        "permgrouplab_microphone": "Mikrofon",
        "permgrouplab_nearby_devices": "Yakındaki cihazlar",
        "permgrouplab_notifications": "Bildirimler",
        "permgrouplab_phone": "Telefon",
        "permgrouplab_readMediaAural": "Müzik ve ses",
        "permgrouplab_readMediaVisual": "Fotoğraflar ve videolar",
        "permgrouplab_sensors": "Vücut sensörleri",
        "permgrouplab_sms": "SMS",
        "permgrouplab_storage": "Dosyalar",
        "permgrouprequest_activityRecognition": "Uygulamanın hareketlerinizi izlemesine izin verin.",
        "permgrouprequest_calendar": "<b>",
        "permgrouprequest_calllog": "Telefon arama kayıtlarınıza erişmek için <b>",
        "permgrouprequest_camera": "<b>",
        "permgrouprequest_contacts": "<b>",
        "permgrouprequest_location": "<b>",
        "permgrouprequest_microphone": "<b>",
        "permgrouprequest_phone": "<b>",
        "permgrouprequest_sensors": "<b>",
        "permgrouprequest_sms": "<b>",
        "permgrouprequest_storage": "<b>",
        "permgrouprequestdetail_location": "Uygulama konum bilgisine sadece siz onu kullanırken erişebilecektir",
        "permlab_acceptHandover": "başka bir uygulamadaki çağrıya devam et",
        "permlab_accessBackgroundLocation": "konum bilgisine arka planda erişim",
        "permlab_accessCoarseLocation": "yaklaşık konuma yalnızca ön planda erişim",
        "permlab_accessDrmCertificates": "DRM sertifikalarına erişim",
        "permlab_accessFineLocation": "kesin konuma yalnızca ön planda erişim",
        "permlab_accessImsCallService": "IMS çağrı hizmetine erişim",
        "permlab_accessLocationExtraCommands": "ek konum sağlayıcı komutlarına erişim",
        "permlab_accessNetworkConditions": "ağ koşullarındaki gözlemleri dinle",
        "permlab_accessNetworkState": "ağ bağlantılarını görüntüle",
        "permlab_accessNotifications": "bildirimlere erişim",
        "permlab_accessWifiState": "kablosuz bağlantıları görüntüle",
        "permlab_accessWimaxState": "WiMAX'e bağlan veya WiMAX bağlantısını kes",
        "permlab_access_notification_policy": "Rahatsız Etmeyin özelliğine erişim",
        "permlab_activityRecognition": "fiziksel etkinliği algıla",
        "permlab_addVoicemail": "sesli mesaj ekle",
        "permlab_answerPhoneCalls": "telefon çağrılarını yanıtla",
        "permlab_audioWrite": "müzik koleksiyonunu değiştir",
        "permlab_backgroundCamera": "arka planda resim ve video çeker",
        "permlab_bindCarrierMessagingService": "operatör mesajlaşma hizmetine bağlan",
        "permlab_bindCarrierServices": "operatör hizmetlerine bağlan",
        "permlab_bindCellBroadcastService": "Hücre yayını mesajlarını yönlendir",
        "permlab_bindConditionProviderService": "bir durum sağlayıcı hizmetine bağlan",
        "permlab_bindDreamService": "bir dream hizmetine bağlan",
        "permlab_bindNotificationListenerService": "bildirim dinleyici hizmetine bağlan",
        "permlab_bind_connection_service": "telefon hizmetleriyle etkileşimde bulun",
        "permlab_bind_incall_service": "çağrı ekranıyla etkileşimde bulun",
        "permlab_bluetooth": "Bluetooth aygıtlarıyla eşleş",
        "permlab_bluetoothAdmin": "Bluetooth ayarlarına erişim",
        "permlab_bluetooth_advertise": "yakındaki Bluetooth cihazlara reklam yayınla",
        "permlab_bluetooth_connect": "eşlenen Bluetooth cihazlara bağlan",
        "permlab_bluetooth_scan": "yakındaki Bluetooth cihazları keşfedip eşle",
        "permlab_bodySensors": "vücut sensörlerine erişim (kalp atış hızı takip aygıtları gibi)",
        "permlab_bodySensors_background": "Arka plandayken nabız gibi vücut sensörü verilerine erişme",
        "permlab_broadcastSticky": "sabit yayın gönder",
        "permlab_callCompanionApp": "aramaları sistem aracılığıyla gör ve denetle.",
        "permlab_callPhone": "telefon numaralarını doğrudan ara",
        "permlab_camera": "resim çek ve video kaydet",
        "permlab_cameraOpenCloseListener": "Bir uygulama veya hizmetin açılıp kapatılan kamera aygıtları hakkında geri çağırmalar almasına izin ver.",
        "permlab_changeNetworkState": "ağ bağlantısını değiştir",
        "permlab_changeTetherState": "kullanılan tethering bağlantısını değiştir",
        "permlab_changeWifiMulticastState": "Kablosuz Çoklu Yayın alımına izin ver",
        "permlab_changeWifiState": "kablosuza ağa bağlan ve bağlantısını kes",
        "permlab_changeWimaxState": "WiMAX durumunu değiştir",
        "permlab_companionProfileWatch": "Kol saatlerinin yönetimi için Tamamlayıcı Kol Saati Profili İzni",
        "permlab_connection_manager": "telekomunikasyon bağlantılarını yönet",
        "permlab_control_incall_experience": "çağrı içi kullanıcı deneyimi sağla",
        "permlab_createNetworkSockets": "tam ağ erişimine sahip ol",
        "permlab_deliverCompanionMessages": "Tamamlayıcı mesajlar iletme",
        "permlab_detectScreenCapture": "uygulama pencerelerindeki ekran görüntülerini algılama",
        "permlab_disableKeyguard": "ekran kilidini devre dışı bırak",
        "permlab_enableCarMode": "araç modunu etkinleştir",
        "permlab_exemptFromAudioRecordRestrictions": "ses kaydı kısıtlamalarından muaf tut",
        "permlab_expandStatusBar": "durum çubuğunu genişlet/daralt",
        "permlab_foregroundService": "ön plan hizmeti çalıştır",
        "permlab_foregroundServiceCamera": "\"camera\" türüyle ön plan hizmetini çalıştırma",
        "permlab_foregroundServiceConnectedDevice": "\"connectedDevice\" türüyle ön plan hizmetini çalıştırma",
        "permlab_foregroundServiceDataSync": "\"dataSync\" türüyle ön plan hizmetini çalıştırma",
        "permlab_foregroundServiceFileManagement": "\"fileManagement\" türündeki ön plan hizmetini çalıştırma",
        "permlab_foregroundServiceHealth": "\"health\" türüyle ön plan hizmetini çalıştırma",
        "permlab_foregroundServiceLocation": "\"location\" türüyle ön plan hizmetini çalıştırma",
        "permlab_foregroundServiceMediaPlayback": "\"mediaPlayback\" türüyle ön plan hizmetini çalıştırma",
        "permlab_foregroundServiceMediaProjection": "\"mediaProjection\" türüyle ön plan hizmetini çalıştırma",
        "permlab_foregroundServiceMicrophone": "\"microphone\" türüyle ön plan hizmetini çalıştırma",
        "permlab_foregroundServicePhoneCall": "\"phoneCall\" türüyle ön plan hizmetini çalıştırma",
        "permlab_foregroundServiceRemoteMessaging": "\"remoteMessaging\" türüyle ön plan hizmetini çalıştırma",
        "permlab_foregroundServiceSpecialUse": "\"specialUse\" türüyle ön plan hizmetini çalıştırma",
        "permlab_foregroundServiceSystemExempted": "\"systemExempted\" türüyle ön plan hizmetini çalıştırma",
        "permlab_fullScreenIntent": "kilitli cihazda tam ekran etkinlik biçiminde bildirim göster",
        "permlab_getAccounts": "aygıttaki hesapları bul",
        "permlab_getPackageSize": "uygulama depolama alanını ölç",
        "permlab_getTasks": "çalışan uygulamaları al",
        "permlab_handoverStatus": "Android Beam aktarım durumunu al",
        "permlab_hideOverlayWindows": "diğer uygulamaların yer paylaşımlarını gizleme",
        "permlab_highSamplingRateSensors": "sensör verilerine daha yüksek örnekleme hızında eriş",
        "permlab_imagesWrite": "fotoğraf koleksiyonunu değiştir",
        "permlab_install_shortcut": "kısayollar kur",
        "permlab_invokeCarrierSetup": "operatör tarafından sağlanan yapılandırma uygulamasını çalıştır",
        "permlab_killBackgroundProcesses": "diğer uygulamaları kapat",
        "permlab_manageFace": "yüz tanıma kilidi donanımı yönet",
        "permlab_manageFingerprint": "parmak izi donanımını yönet",
        "permlab_manageNetworkPolicy": "ağ politikasını yönet",
        "permlab_manageOngoingCalls": "Devam eden aramaları yönetme",
        "permlab_manageOwnCalls": "çağrıları sistem üzerinden yönlendir",
        "permlab_manageProfileAndDeviceOwners": "profili ve aygıt sahiplerini yönet",
        "permlab_mediaLocation": "medya koleksiyonundan konumları oku",
        "permlab_modifyAudioSettings": "ses ayarlarını değiştir",
        "permlab_modifyNetworkAccounting": "ağ kullanım hesaplamasını değiştir",
        "permlab_nearby_wifi_devices": "yakındaki kablosuz cihazlarla etkileşim kur",
        "permlab_nfc": "Yakın Alan İletişimini (NFC) denetle",
        "permlab_observeCompanionDevicePresence": "Tamamlayıcı cihaz varlığını gözlemleme",
        "permlab_persistentActivity": "uygulamayı her zaman çalışır yap",
        "permlab_postNotification": "bildirimleri göster",
        "permlab_preferredPaymentInfo": "Tercih Edilen NFC Ödeme Hizmeti Bilgileri",
        "permlab_processOutgoingCalls": "giden çağrıları yeniden yönlendir",
        "permlab_queryAllPackages": "tüm paketleri sorgulama",
        "permlab_readBasicPhoneState": "temel telefon durumunu ve kimliğini okuma",
        "permlab_readCalendar": "Takvim etkinliklerini ve ayrıntılarını oku",
        "permlab_readCallLog": "çağrı günlüğünü oku",
        "permlab_readCellBroadcasts": "hücre yayını mesajlarını oku",
        "permlab_readContacts": "kişileri oku",
        "permlab_readHistoryBookmarks": "Web yer işaretlerini ve geçmişini oku",
        "permlab_readInstallSessions": "kurma oturumlarını oku",
        "permlab_readMediaAudio": "paylaşılan depolama alanınızdaki ses dosyalarını okuma",
        "permlab_readMediaImages": "paylaşılan depolama alanınızdaki resim dosyalarını okuma",
        "permlab_readMediaVideo": "paylaşılan depolama alanınızdaki video dosyalarını okuma",
        "permlab_readNetworkUsageHistory": "geçmiş ağ kullanımını oku",
        "permlab_readPhoneNumbers": "telefon numaralarını oku",
        "permlab_readPhoneState": "telefonun durumunu ve kimliğini oku",
        "permlab_readSms": "metin mesajlarını (SMS veya MMS) oku",
        "permlab_readSyncSettings": "eşzamanlama ayarlarını oku",
        "permlab_readSyncStats": "eşzamanlama istatistiklerini oku",
        "permlab_readVisualUserSelect": "kullanıcının, paylaşılan depolama alanından seçtiği resim ve video dosyalarını okuma",
        "permlab_receiveBootCompleted": "başlangıçta çalıştır",
        "permlab_receiveMms": "metin mesajları (MMS) al",
        "permlab_receiveSms": "metin mesajları (SMS) al",
        "permlab_receiveWapPush": "metin mesajları (WAP) al",
        "permlab_recordAudio": "ses kaydet",
        "permlab_recordBackgroundAudio": "arka planda ses kaydeder",
        "permlab_register_call_provider": "yeni telekomünikasyon bağlantıları kaydet",
        "permlab_register_sim_subscription": "yeni telekomünikasyon SIM bağlantıları kaydet",
        "permlab_removeDrmCertificates": "DRM sertifikalarını kaldır",
        "permlab_reorderTasks": "çalışan uygulamaları yeniden sırala",
        "permlab_requestDeletePackages": "paketleri silme isteğinde bulun",
        "permlab_requestIgnoreBatteryOptimizations": "pil optimizasyonlarını göz ardı etme izni iste",
        "permlab_requestInstallPackages": "paket kurma isteğinde bulun",
        "permlab_requestPasswordComplexity": "ekran kilidi karmaşıklığı isteğinde bulun",
        "permlab_route_media_output": "medya çıkışını yönlendir",
        "permlab_runInBackground": "arka planda çalış",
        "permlab_schedule_exact_alarm": "Zamanı tam olarak belirli işlemler planlama",
        "permlab_sdcardRead": "paylaşılan depolama alanının içeriğini oku",
        "permlab_sdcardWrite": "paylaşılan depolama alanımın içeriğini değiştir veya sil",
        "permlab_sendSms": "SMS mesajları gönder ve görüntüle",
        "permlab_setAlarm": "alarm ayarla",
        "permlab_setInputCalibration": "giriş aygıtı kalibrasyonunu değiştir",
        "permlab_setTimeZone": "saat dilimini ayarla",
        "permlab_setWallpaper": "duvar kağıdını ayarla",
        "permlab_setWallpaperHints": "duvar kağıdının boyutunu ayarla",
        "permlab_sim_communication": "SIM karta komut gönder",
        "permlab_startForegroundServicesFromBackground": "Arka plandan ön plan hizmetleri başlatma",
        "permlab_startReviewPermissionDecisions": "izin kararlarını görüntülemeye başlama",
        "permlab_startViewAppFeatures": "uygulama özelliklerini görüntülemeye başlama",
        "permlab_startViewPermissionUsage": "izin kullanımı görüntülemeye başla",
        "permlab_statusBar": "durum çubuğunu devre dışı bırak veya değiştir",
        "permlab_statusBarService": "durum çubuğu ol",
        "permlab_subscribedFeedsRead": "abone olunan akışları oku",
        "permlab_systemAlertWindow": "Bu uygulama, diğer uygulamaların üzerinde görünebilir",
        "permlab_systemCamera": "Bir uygulama veya hizmetin fotoğraf ve video çekmek için sistem kameralarına erişmesine izin ver",
        "permlab_transmitIr": "kızılötesi ilet",
        "permlab_turnScreenOn": "ekranı aç",
        "permlab_uninstall_shortcut": "kısayolları kaldır",
        "permlab_updatePackagesWithoutUserAction": "uygulamayı kullanıcı işlemi olmadan güncelleme",
        "permlab_useBiometric": "biyometrik donanım kullan",
        "permlab_useDataInBackground": "arka planda veri kullan",
        "permlab_useFaceAuthentication": "yüz tanıma kilidi donanımını kullan",
        "permlab_useFingerprint": "parmak izi donanımını kullan",
        "permlab_use_exact_alarm": "Alarm veya etkinlik hatırlatıcı planlama",
        "permlab_use_sip": "SIP çağrıları yap/al",
        "permlab_uwb_ranging": "yakındaki Ultra Geniş Bant cihazların birbirine göre konumunu bul",
        "permlab_vibrate": "titreşimi denetle",
        "permlab_videoWrite": "video koleksiyonunu değiştir",
        "permlab_wakeLock": "telefonun uykuya geçmesini önle",
        "permlab_writeCalendar": "sahibin bilgisi olmadan takvim etkinlikleri ekle veya mevcut etkinlikleri değiştir ve misafirlere e-posta gönder",
        "permlab_writeCallLog": "çağrı günlüğüne yaz",
        "permlab_writeContacts": "kişileri değiştir",
        "permlab_writeGeolocationPermissions": "Tarayıcı'nın coğrafi konum izinlerini değiştir",
        "permlab_writeHistoryBookmarks": "web yer işaretlerine ve geçmişe yaz",
        "permlab_writeSettings": "sistem ayarlarını değiştir",
        "permlab_writeSyncSettings": "eşzamanlamayı aç/kapat"
    },
    "sidebars": {
        "donate": {
            "bank_transfer_name": "Ad",
            "bitcoin_alt": "Bitcoin ile bağış yap",
            "credit_card": "Kredi Kartı",
            "crypto": "Kripto",
            "currency": "Para",
            "flattr_alt": "Flattr ile Bağış Yap",
            "heading": "Bağış Yap",
            "hellotux": "👕 Tişörtler 👕 şuradan",
            "hellotux_alt": "HELLOTUX",
            "hellotux_donation": "F-Droid, satılan gömlek başına 3€ alacak.",
            "liberapay_alt": "Liberapay ile Bağış Yap",
            "litecoin_alt": "Litecoin ile Bağış Yap",
            "more_options": "Diğer Seçenekler",
            "opencollective_alt": "Kolektifimize bağış yapın",
            "paypal": "PayPal",
            "paypal_alt": "PayPal ile Bağış Yap",
            "powered_by_donations": "F-Droid bağışlarınızla güç bulur!",
            "via_bank_transfer": "Banka Havalesi"
        },
        "lang": {
            "change": "Değiştir"
        },
        "last_updated": {
            "heading": "Son Güncelleme"
        },
        "latest_packages": {
            "heading": "En Son Uygulamalar"
        },
        "news": {
            "heading": "Haberler"
        },
        "search": {
            "heading": "Uygulamaları Bul",
            "noscript": "JavaScript'in etkinleştirilmesini gerektirir",
            "search": "Ara"
        }
    }
}
